<?xml version="1.0" encoding="UTF-8" standalone="no"?>
<!-- Created with Inkscape (http://www.inkscape.org/) -->

<svg
   xmlns:dc="http://purl.org/dc/elements/1.1/"
   xmlns:cc="http://creativecommons.org/ns#"
   xmlns:rdf="http://www.w3.org/1999/02/22-rdf-syntax-ns#"
   xmlns:svg="http://www.w3.org/2000/svg"
   xmlns="http://www.w3.org/2000/svg"
   xmlns:sodipodi="http://sodipodi.sourceforge.net/DTD/sodipodi-0.dtd"
   xmlns:inkscape="http://www.inkscape.org/namespaces/inkscape"
   width="400"
   height="1000"
   viewBox="0 0 105.83334 264.58334"
   version="1.1"
   id="svg8"
   inkscape:version="0.92.4 5da689c313, 2019-01-14"
   sodipodi:docname="1.svg">
  <defs
     id="defs2" />
  <sodipodi:namedview
     id="base"
     pagecolor="#ffffff"
     bordercolor="#505050"
     borderopacity="1"
     inkscape:pageopacity="0"
     inkscape:pageshadow="2"
     inkscape:zoom="0.49497475"
     inkscape:cx="316.57971"
     inkscape:cy="462.71388"
     inkscape:document-units="mm"
     inkscape:current-layer="layer1"
     showgrid="false"
     inkscape:pagecheckerboard="true"
     units="px"
     inkscape:showpageshadow="false"
     inkscape:window-width="1366"
     inkscape:window-height="744"
     inkscape:window-x="0"
     inkscape:window-y="0"
     inkscape:window-maximized="1"
     showguides="false" />
  <metadata
     id="metadata5">
    <rdf:RDF>
      <cc:Work
         rdf:about="">
        <dc:format>image/svg+xml</dc:format>
        <dc:type
           rdf:resource="http://purl.org/dc/dcmitype/StillImage" />
        <dc:title />
      </cc:Work>
    </rdf:RDF>
  </metadata>
  <g
     inkscape:label="Layer 1"
     inkscape:groupmode="layer"
     id="layer1"
     transform="translate(0,-32.416663)">
    <g
       id="g209">
      <path
         id="rect4827"
         transform="matrix(0.26458333,0,0,0.26458333,0,32.416663)"
         d="M 0 700 L 0 800 L 100 800 L 200 800 L 300 800 L 300 700 L 200 700 L 100 700 L 0 700 z "
         style="stroke-width:0.99999982" />
      <path
         id="rect4827-4-2"
         transform="matrix(0.26458333,0,0,0.26458333,0,32.416663)"
         d="M 100 100 L 100 200 L 100 300 L 100 400 L 100 500 L 100 600 L 100 700 L 200 700 L 200 600 L 200 500 L 200 400 L 200 300 L 200 200 L 200 100 L 100 100 z "
         style="stroke-width:0.99999982" />
      <rect
         style="stroke-width:0.26458329"
         y="85.333366"
         x="0"
         height="26.45833"
         width="26.45833"
         id="rect4827-4-2-0" />
    </g>
  </g>
</svg>
