<?xml version="1.0" encoding="UTF-8" standalone="no"?>
<!-- Created with Inkscape (http://www.inkscape.org/) -->

<svg
   xmlns:dc="http://purl.org/dc/elements/1.1/"
   xmlns:cc="http://creativecommons.org/ns#"
   xmlns:rdf="http://www.w3.org/1999/02/22-rdf-syntax-ns#"
   xmlns:svg="http://www.w3.org/2000/svg"
   xmlns="http://www.w3.org/2000/svg"
   xmlns:sodipodi="http://sodipodi.sourceforge.net/DTD/sodipodi-0.dtd"
   xmlns:inkscape="http://www.inkscape.org/namespaces/inkscape"
   width="500"
   height="1000"
   viewBox="0 0 132.29167 264.58334"
   version="1.1"
   id="svg8"
   inkscape:version="0.92.4 5da689c313, 2019-01-14"
   sodipodi:docname="2.svg">
  <defs
     id="defs2" />
  <sodipodi:namedview
     id="base"
     pagecolor="#ffffff"
     bordercolor="#505050"
     borderopacity="1"
     inkscape:pageopacity="0"
     inkscape:pageshadow="2"
     inkscape:zoom="0.49497475"
     inkscape:cx="404.50075"
     inkscape:cy="476.74895"
     inkscape:document-units="mm"
     inkscape:current-layer="layer1"
     showgrid="false"
     inkscape:pagecheckerboard="true"
     units="px"
     inkscape:showpageshadow="false"
     inkscape:window-width="1366"
     inkscape:window-height="744"
     inkscape:window-x="0"
     inkscape:window-y="0"
     inkscape:window-maximized="1" />
  <metadata
     id="metadata5">
    <rdf:RDF>
      <cc:Work
         rdf:about="">
        <dc:format>image/svg+xml</dc:format>
        <dc:type
           rdf:resource="http://purl.org/dc/dcmitype/StillImage" />
        <dc:title />
      </cc:Work>
    </rdf:RDF>
  </metadata>
  <g
     inkscape:label="Layer 1"
     inkscape:groupmode="layer"
     id="layer1"
     transform="translate(0,-32.416663)">
    <g
       id="g230">
      <path
         inkscape:connector-curvature="0"
         id="rect9"
         d="m 0,217.625 v 26.45833 H 26.458333 52.916666 79.374999 105.83333 V 217.625 H 79.374999 52.916666 26.458333 Z"
         style="stroke-width:0.26458332" />
      <rect
         style="stroke-width:0.26458332"
         y="191.16667"
         x="0"
         height="26.458334"
         width="26.458334"
         id="rect9-9" />
      <rect
         style="stroke-width:0.26458332"
         y="164.70834"
         x="26.458344"
         height="26.458334"
         width="26.458334"
         id="rect9-0" />
      <path
         inkscape:connector-curvature="0"
         id="rect9-55"
         d="M 79.374999,85.333332 V 111.79166 138.25 H 105.83333 V 111.79166 85.333332 Z"
         style="stroke-width:0.26458332" />
      <path
         inkscape:connector-curvature="0"
         id="rect9-4"
         d="M 26.458333,58.874999 V 85.333332 H 52.916666 79.374999 V 58.874999 H 52.916666 Z"
         style="stroke-width:0.26458332" />
      <rect
         style="stroke-width:0.26458332"
         y="138.25002"
         x="52.916656"
         height="26.458334"
         width="26.458334"
         id="rect9-0-8" />
      <rect
         style="stroke-width:0.26458332"
         y="85.333366"
         x="0"
         height="26.458334"
         width="26.458334"
         id="rect9-0-3" />
    </g>
  </g>
</svg>
