<?xml version="1.0" encoding="UTF-8" standalone="no"?>
<!-- Created with Inkscape (http://www.inkscape.org/) -->

<svg
   xmlns:dc="http://purl.org/dc/elements/1.1/"
   xmlns:cc="http://creativecommons.org/ns#"
   xmlns:rdf="http://www.w3.org/1999/02/22-rdf-syntax-ns#"
   xmlns:svg="http://www.w3.org/2000/svg"
   xmlns="http://www.w3.org/2000/svg"
   xmlns:sodipodi="http://sodipodi.sourceforge.net/DTD/sodipodi-0.dtd"
   xmlns:inkscape="http://www.inkscape.org/namespaces/inkscape"
   width="500"
   height="1000"
   viewBox="0 0 132.29167 264.58334"
   version="1.1"
   id="svg8"
   inkscape:version="0.92.4 5da689c313, 2019-01-14"
   sodipodi:docname="6.svg">
  <defs
     id="defs2" />
  <sodipodi:namedview
     id="base"
     pagecolor="#ffffff"
     bordercolor="#505050"
     borderopacity="1"
     inkscape:pageopacity="0"
     inkscape:pageshadow="2"
     inkscape:zoom="0.49497475"
     inkscape:cx="522.75783"
     inkscape:cy="541.81997"
     inkscape:document-units="mm"
     inkscape:current-layer="layer1"
     showgrid="false"
     inkscape:pagecheckerboard="true"
     units="px"
     inkscape:showpageshadow="false"
     inkscape:window-width="1366"
     inkscape:window-height="744"
     inkscape:window-x="0"
     inkscape:window-y="0"
     inkscape:window-maximized="1" />
  <metadata
     id="metadata5">
    <rdf:RDF>
      <cc:Work
         rdf:about="">
        <dc:format>image/svg+xml</dc:format>
        <dc:type
           rdf:resource="http://purl.org/dc/dcmitype/StillImage" />
        <dc:title></dc:title>
      </cc:Work>
    </rdf:RDF>
  </metadata>
  <g
     inkscape:label="Layer 1"
     inkscape:groupmode="layer"
     id="layer1"
     transform="translate(0,-32.416663)">
    <g
       id="g380"
       transform="translate(0,4.233336)">
      <path
         inkscape:connector-curvature="0"
         id="rect418-2-1"
         transform="matrix(0.26458333,0,0,0.26458333,0,26.066663)"
         d="M 100,108 V 208 H 200 300 V 108 H 200 Z"
         style="stroke-width:0.99999994" />
      <path
         inkscape:connector-curvature="0"
         id="rect418-2-1-7"
         transform="matrix(0.26458333,0,0,0.26458333,0,26.066663)"
         d="M 0,208 V 308 408 508 608 708 H 100 V 608 508 408 308 208 Z"
         style="stroke-width:0.99999994" />
      <path
         inkscape:connector-curvature="0"
         id="rect418-2-1-9"
         transform="matrix(0.26458333,0,0,0.26458333,0,26.066663)"
         d="M 100,708 V 808 H 200 300 V 708 H 200 Z"
         style="stroke-width:0.99999994" />
      <path
         inkscape:connector-curvature="0"
         id="rect418-2-1-46"
         transform="matrix(0.26458333,0,0,0.26458333,0,26.066663)"
         d="M 100,408 V 508 H 200 300 V 408 H 200 Z"
         style="stroke-width:0.99999994" />
      <path
         inkscape:connector-curvature="0"
         id="rect418-2-1-28"
         transform="matrix(0.26458333,0,0,0.26458333,0,26.066663)"
         d="M 300,508 V 608 708 H 400 V 608 508 Z"
         style="stroke-width:0.99999994" />
      <rect
         style="stroke-width:0.26458332"
         y="81.100021"
         x="79.375"
         height="26.458334"
         width="26.458334"
         id="rect418-2-1-92" />
    </g>
  </g>
</svg>
