<?xml version="1.0" encoding="UTF-8" standalone="no"?>
<!-- Created with Inkscape (http://www.inkscape.org/) -->

<svg
   xmlns:dc="http://purl.org/dc/elements/1.1/"
   xmlns:cc="http://creativecommons.org/ns#"
   xmlns:rdf="http://www.w3.org/1999/02/22-rdf-syntax-ns#"
   xmlns:svg="http://www.w3.org/2000/svg"
   xmlns="http://www.w3.org/2000/svg"
   xmlns:sodipodi="http://sodipodi.sourceforge.net/DTD/sodipodi-0.dtd"
   xmlns:inkscape="http://www.inkscape.org/namespaces/inkscape"
   width="600"
   height="1000"
   viewBox="0 0 158.75001 264.58334"
   version="1.1"
   id="svg8"
   inkscape:version="0.92.4 5da689c313, 2019-01-14"
   sodipodi:docname="_asciitilde.svg">
  <defs
     id="defs2" />
  <sodipodi:namedview
     id="base"
     pagecolor="#ffffff"
     bordercolor="#505050"
     borderopacity="1"
     inkscape:pageopacity="0"
     inkscape:pageshadow="2"
     inkscape:zoom="0.49497475"
     inkscape:cx="527.60479"
     inkscape:cy="535.88432"
     inkscape:document-units="mm"
     inkscape:current-layer="layer1"
     showgrid="false"
     inkscape:pagecheckerboard="true"
     units="px"
     inkscape:showpageshadow="false"
     inkscape:window-width="1366"
     inkscape:window-height="744"
     inkscape:window-x="0"
     inkscape:window-y="0"
     inkscape:window-maximized="1"
     showguides="false" />
  <metadata
     id="metadata5">
    <rdf:RDF>
      <cc:Work
         rdf:about="">
        <dc:format>image/svg+xml</dc:format>
        <dc:type
           rdf:resource="http://purl.org/dc/dcmitype/StillImage" />
        <dc:title></dc:title>
      </cc:Work>
    </rdf:RDF>
  </metadata>
  <g
     inkscape:label="Layer 1"
     inkscape:groupmode="layer"
     id="layer1"
     transform="translate(0,-32.416663)">
    <rect
       id="rect3322"
       width="26.458334"
       height="26.458334"
       x="-26.458342"
       y="58.875"
       style="stroke-width:0.26458332"
       transform="scale(-1,1)" />
    <rect
       id="rect3322-7"
       width="26.458334"
       height="26.458334"
       x="-52.916676"
       y="32.416664"
       style="stroke-width:0.26458332"
       transform="scale(-1,1)" />
    <rect
       id="rect3322-5"
       width="26.458334"
       height="26.458334"
       x="-79.375015"
       y="58.875"
       style="stroke-width:0.26458332"
       transform="scale(-1,1)" />
    <rect
       id="rect3322-8"
       width="26.458334"
       height="26.458334"
       x="-105.83335"
       y="85.333336"
       style="stroke-width:0.26458332"
       transform="scale(-1,1)" />
    <rect
       id="rect3322-70"
       width="26.458334"
       height="26.458334"
       x="-132.29169"
       y="58.875"
       style="stroke-width:0.26458332"
       transform="scale(-1,1)" />
  </g>
</svg>
