<?xml version="1.0" encoding="UTF-8" standalone="no"?>
<svg
   xmlns:dc="http://purl.org/dc/elements/1.1/"
   xmlns:cc="http://creativecommons.org/ns#"
   xmlns:rdf="http://www.w3.org/1999/02/22-rdf-syntax-ns#"
   xmlns:svg="http://www.w3.org/2000/svg"
   xmlns="http://www.w3.org/2000/svg"
   xmlns:sodipodi="http://sodipodi.sourceforge.net/DTD/sodipodi-0.dtd"
   xmlns:inkscape="http://www.inkscape.org/namespaces/inkscape"
   version="1.1"
   viewBox="-10 0 800 1000"
   id="svg3942"
   sodipodi:docname="_at.svg"
   width="800"
   height="1000"
   inkscape:version="0.92.4 5da689c313, 2019-01-14">
  <metadata
     id="metadata3948">
    <rdf:RDF>
      <cc:Work
         rdf:about="">
        <dc:format>image/svg+xml</dc:format>
        <dc:type
           rdf:resource="http://purl.org/dc/dcmitype/StillImage" />
        <dc:title></dc:title>
      </cc:Work>
    </rdf:RDF>
  </metadata>
  <defs
     id="defs3946" />
  <sodipodi:namedview
     pagecolor="#ffffff"
     bordercolor="#000000"
     borderopacity="1"
     objecttolerance="10"
     gridtolerance="10"
     guidetolerance="10"
     inkscape:pageopacity="0"
     inkscape:pageshadow="2"
     inkscape:window-width="1366"
     inkscape:window-height="744"
     id="namedview3944"
     showgrid="false"
     units="px"
     inkscape:pagecheckerboard="true"
     inkscape:showpageshadow="false"
     inkscape:zoom="0.32593203"
     inkscape:cx="425.67534"
     inkscape:cy="546.06848"
     inkscape:window-x="0"
     inkscape:window-y="0"
     inkscape:window-maximized="1"
     inkscape:current-layer="g3961" />
  <g
     transform="matrix(0.5,0,0,-0.5,147.52542,850.33897)"
     id="g3940">
    <g
       id="g3961">
      <g
         id="g711">
        <path
           id="rect3969"
           transform="matrix(2,0,0,-2,-315.05084,1700.6779)"
           d="M 0 300 L 0 400 L 0 500 L 0 600 L 100 600 L 100 500 L 100 400 L 100 300 L 0 300 z "
           style="stroke-width:1" />
        <rect
           transform="scale(1,-1)"
           style="stroke-width:2"
           y="-500.67795"
           x="-115.05083"
           height="200"
           width="200"
           id="rect3969-3-5-6" />
        <path
           id="rect3969-3-5-6-2"
           transform="matrix(2,0,0,-2,-315.05084,1700.6779)"
           d="M 200 700 L 200 800 L 300 800 L 400 800 L 500 800 L 500 700 L 400 700 L 300 700 L 200 700 z "
           style="stroke-width:1" />
        <rect
           transform="scale(1,-1)"
           style="stroke-width:2"
           y="-1300.6779"
           x="-115.05083"
           height="200"
           width="200"
           id="rect3969-3-5-6-2-9" />
        <path
           id="rect3969-3-5-6-2-9-1"
           transform="matrix(2,0,0,-2,-315.05084,1700.6779)"
           d="M 200 100 L 200 200 L 300 200 L 400 200 L 500 200 L 500 100 L 400 100 L 300 100 L 200 100 z "
           style="stroke-width:1" />
        <path
           id="rect3969-3-5-6-2-9-1-2-7-0"
           transform="matrix(2,0,0,-2,-315.05084,1700.6779)"
           d="M 600 300 L 600 400 L 600 500 L 600 600 L 700 600 L 700 500 L 700 400 L 700 300 L 600 300 z "
           style="stroke-width:1" />
        <rect
           transform="scale(1,-1)"
           style="stroke-width:2"
           y="-500.67795"
           x="684.94922"
           height="200"
           width="200"
           id="rect3969-3-5-6-2-9-1-2-7-0-9-3-6" />
        <rect
           transform="scale(1,-1)"
           style="stroke-width:2"
           y="-1300.6779"
           x="684.94922"
           height="200"
           width="200"
           id="rect3969-3-5-6-2-9-1-2-7-6" />
        <rect
           transform="scale(1,-1)"
           style="stroke-width:2"
           y="-900.67792"
           x="84.949158"
           height="200"
           width="200"
           id="rect3969-3-1" />
        <rect
           transform="scale(1,-1)"
           style="stroke-width:2"
           y="-700.67792"
           x="284.94916"
           height="200"
           width="200"
           id="rect3969-3-1-8" />
        <rect
           transform="scale(1,-1)"
           style="stroke-width:2"
           y="-900.67792"
           x="484.94916"
           height="200"
           width="200"
           id="rect3969-3-1-8-7" />
        <rect
           transform="scale(1,-1)"
           style="stroke-width:2"
           y="-1100.678"
           x="284.94916"
           height="200"
           width="200"
           id="rect3969-3-1-9" />
        <rect
           transform="scale(1,-1)"
           style="stroke-width:2"
           y="-700.67792"
           x="484.94916"
           height="200"
           width="200"
           id="rect3969-3-1-8-7-2" />
      </g>
    </g>
  </g>
</svg>
