<?xml version="1.0" encoding="UTF-8" standalone="no"?>
<!-- Created with Inkscape (http://www.inkscape.org/) -->

<svg
   xmlns:dc="http://purl.org/dc/elements/1.1/"
   xmlns:cc="http://creativecommons.org/ns#"
   xmlns:rdf="http://www.w3.org/1999/02/22-rdf-syntax-ns#"
   xmlns:svg="http://www.w3.org/2000/svg"
   xmlns="http://www.w3.org/2000/svg"
   xmlns:sodipodi="http://sodipodi.sourceforge.net/DTD/sodipodi-0.dtd"
   xmlns:inkscape="http://www.inkscape.org/namespaces/inkscape"
   width="600"
   height="1000"
   viewBox="0 0 158.75001 264.58334"
   version="1.1"
   id="svg8"
   inkscape:version="0.92.4 5da689c313, 2019-01-14"
   sodipodi:docname="_greater.svg">
  <defs
     id="defs2" />
  <sodipodi:namedview
     id="base"
     pagecolor="#ffffff"
     bordercolor="#505050"
     borderopacity="1"
     inkscape:pageopacity="0"
     inkscape:pageshadow="2"
     inkscape:zoom="0.49497475"
     inkscape:cx="527.60479"
     inkscape:cy="527.23641"
     inkscape:document-units="mm"
     inkscape:current-layer="layer1"
     showgrid="false"
     inkscape:pagecheckerboard="true"
     units="px"
     inkscape:showpageshadow="false"
     inkscape:window-width="1366"
     inkscape:window-height="744"
     inkscape:window-x="0"
     inkscape:window-y="0"
     inkscape:window-maximized="1" />
  <metadata
     id="metadata5">
    <rdf:RDF>
      <cc:Work
         rdf:about="">
        <dc:format>image/svg+xml</dc:format>
        <dc:type
           rdf:resource="http://purl.org/dc/dcmitype/StillImage" />
        <dc:title></dc:title>
      </cc:Work>
    </rdf:RDF>
  </metadata>
  <g
     inkscape:label="Layer 1"
     inkscape:groupmode="layer"
     id="layer1"
     transform="translate(0,-32.416663)">
    <g
       id="g1283"
       transform="matrix(-1,0,0,1,132.29166,0)">
      <rect
         transform="scale(-1,1)"
         style="stroke-width:0.26458332"
         y="138.25002"
         x="-26.458334"
         height="26.458334"
         width="26.458334"
         id="rect337-93-2" />
      <path
         id="rect337-93-2-3"
         transform="matrix(0.26458333,0,0,0.26458333,0,32.416663)"
         d="M 100,300 V 400 H 200 300 V 300 H 200 Z"
         style="stroke-width:0.99999994"
         inkscape:connector-curvature="0" />
      <path
         id="rect337-93-2-9"
         transform="matrix(0.26458333,0,0,0.26458333,0,32.416663)"
         d="M 100,500 V 600 H 200 300 V 500 H 200 Z"
         style="stroke-width:0.99999994"
         inkscape:connector-curvature="0" />
      <path
         id="rect337-93-2-0"
         transform="matrix(0.26458333,0,0,0.26458333,0,32.416663)"
         d="M 300,200 V 300 H 400 500 V 200 H 400 Z"
         style="stroke-width:0.99999994"
         inkscape:connector-curvature="0" />
      <path
         id="rect337-93-2-85"
         transform="matrix(0.26458333,0,0,0.26458333,0,32.416663)"
         d="M 300,600 V 700 H 400 500 V 600 H 400 Z"
         style="stroke-width:0.99999994"
         inkscape:connector-curvature="0" />
    </g>
  </g>
</svg>
