<?xml version="1.0" encoding="UTF-8" standalone="no"?>
<!-- Created with Inkscape (http://www.inkscape.org/) -->

<svg
   xmlns:dc="http://purl.org/dc/elements/1.1/"
   xmlns:cc="http://creativecommons.org/ns#"
   xmlns:rdf="http://www.w3.org/1999/02/22-rdf-syntax-ns#"
   xmlns:svg="http://www.w3.org/2000/svg"
   xmlns="http://www.w3.org/2000/svg"
   xmlns:sodipodi="http://sodipodi.sourceforge.net/DTD/sodipodi-0.dtd"
   xmlns:inkscape="http://www.inkscape.org/namespaces/inkscape"
   width="400"
   height="1000"
   viewBox="0 0 105.83334 264.58334"
   version="1.1"
   id="svg8"
   inkscape:version="0.92.4 5da689c313, 2019-01-14"
   sodipodi:docname="E.svg">
  <defs
     id="defs2" />
  <sodipodi:namedview
     id="base"
     pagecolor="#ffffff"
     bordercolor="#505050"
     borderopacity="1"
     inkscape:pageopacity="0"
     inkscape:pageshadow="2"
     inkscape:zoom="0.49497475"
     inkscape:cx="643.15424"
     inkscape:cy="521.7871"
     inkscape:document-units="mm"
     inkscape:current-layer="layer1"
     showgrid="false"
     inkscape:pagecheckerboard="true"
     units="px"
     inkscape:showpageshadow="false"
     inkscape:window-width="1366"
     inkscape:window-height="744"
     inkscape:window-x="0"
     inkscape:window-y="0"
     inkscape:window-maximized="1" />
  <metadata
     id="metadata5">
    <rdf:RDF>
      <cc:Work
         rdf:about="">
        <dc:format>image/svg+xml</dc:format>
        <dc:type
           rdf:resource="http://purl.org/dc/dcmitype/StillImage" />
        <dc:title></dc:title>
      </cc:Work>
    </rdf:RDF>
  </metadata>
  <g
     inkscape:label="Layer 1"
     inkscape:groupmode="layer"
     id="layer1"
     transform="translate(0,-32.416663)">
    <g
       id="g839">
      <path
         id="rect4654"
         d="m 0,58.874996 v 26.458333 26.458331 26.45834 26.45833 26.45833 26.45833 26.45834 H 26.458333 V 217.62499 191.16666 164.70833 138.25 111.79166 85.333329 58.874996 Z"
         style="stroke-width:0.26458332"
         inkscape:connector-curvature="0" />
      <path
         id="rect4654-0-3-6-6-3"
         d="M 26.458333,58.874996 V 85.333329 H 52.916666 79.374999 V 58.874996 H 52.916666 Z"
         style="stroke-width:0.26458332"
         inkscape:connector-curvature="0" />
      <path
         id="rect4654-0-3-6-6-1"
         d="m 26.458333,138.25 v 26.45833 H 52.916666 79.374999 V 138.25 H 52.916666 Z"
         style="stroke-width:0.26458332"
         inkscape:connector-curvature="0" />
      <path
         id="rect4654-0-3-6-6-69"
         d="m 26.458333,217.62499 v 26.45834 H 52.916666 79.374999 V 217.62499 H 52.916666 Z"
         style="stroke-width:0.26458332"
         inkscape:connector-curvature="0" />
    </g>
  </g>
</svg>
