<?xml version="1.0" encoding="UTF-8" standalone="no"?>
<!-- Created with Inkscape (http://www.inkscape.org/) -->

<svg
   xmlns:dc="http://purl.org/dc/elements/1.1/"
   xmlns:cc="http://creativecommons.org/ns#"
   xmlns:rdf="http://www.w3.org/1999/02/22-rdf-syntax-ns#"
   xmlns:svg="http://www.w3.org/2000/svg"
   xmlns="http://www.w3.org/2000/svg"
   xmlns:sodipodi="http://sodipodi.sourceforge.net/DTD/sodipodi-0.dtd"
   xmlns:inkscape="http://www.inkscape.org/namespaces/inkscape"
   width="600"
   height="1000"
   viewBox="0 0 158.75 264.58334"
   version="1.1"
   id="svg8"
   inkscape:version="0.92.4 5da689c313, 2019-01-14"
   sodipodi:docname="x.svg">
  <defs
     id="defs2" />
  <sodipodi:namedview
     id="base"
     pagecolor="#ffffff"
     bordercolor="#505050"
     borderopacity="1"
     inkscape:pageopacity="0"
     inkscape:pageshadow="2"
     inkscape:zoom="0.49497475"
     inkscape:cx="527.60479"
     inkscape:cy="484.77905"
     inkscape:document-units="mm"
     inkscape:current-layer="layer1"
     showgrid="false"
     inkscape:pagecheckerboard="true"
     units="px"
     inkscape:showpageshadow="false"
     inkscape:window-width="1366"
     inkscape:window-height="744"
     inkscape:window-x="0"
     inkscape:window-y="0"
     inkscape:window-maximized="1" />
  <metadata
     id="metadata5">
    <rdf:RDF>
      <cc:Work
         rdf:about="">
        <dc:format>image/svg+xml</dc:format>
        <dc:type
           rdf:resource="http://purl.org/dc/dcmitype/StillImage" />
        <dc:title></dc:title>
      </cc:Work>
    </rdf:RDF>
  </metadata>
  <g
     inkscape:label="Layer 1"
     inkscape:groupmode="layer"
     id="layer1"
     transform="translate(0,-32.416663)">
    <g
       id="g2742">
      <rect
         style="stroke-width:0.26458332"
         y="138.24998"
         x="26.458334"
         height="26.458334"
         width="26.458334"
         id="rect2420-8" />
      <rect
         style="stroke-width:0.26458332"
         y="111.79166"
         x="0"
         height="26.458334"
         width="26.458334"
         id="rect2420-05-06-2" />
      <rect
         style="stroke-width:0.26458332"
         y="164.70831"
         x="52.916668"
         height="26.458334"
         width="26.458334"
         id="rect2420-8-5" />
      <rect
         style="stroke-width:0.26458332"
         y="138.24998"
         x="79.375"
         height="26.458334"
         width="26.458334"
         id="rect2420-8-8" />
      <rect
         style="stroke-width:0.26458332"
         y="191.16664"
         x="79.375"
         height="26.458334"
         width="26.458334"
         id="rect2420-8-5-2" />
      <rect
         style="stroke-width:0.26458332"
         y="217.62497"
         x="105.83334"
         height="26.458334"
         width="26.458334"
         id="rect2420-8-5-8" />
      <rect
         style="stroke-width:0.26458332"
         y="111.79166"
         x="105.83334"
         height="26.458334"
         width="26.458334"
         id="rect2420-8-5-4" />
      <rect
         style="stroke-width:0.26458332"
         y="191.16664"
         x="26.458332"
         height="26.458334"
         width="26.458334"
         id="rect2420-8-5-7" />
      <rect
         style="stroke-width:0.26458332"
         y="217.62497"
         x="-1.9073486e-06"
         height="26.458334"
         width="26.458334"
         id="rect2420-8-5-24" />
    </g>
  </g>
</svg>
